C:\Users\USER\IdeaProjects\task6x\src\main\java\PropertiesFiles1.java
C:\Users\USER\IdeaProjects\task6x\src\main\java\Test1.java
C:\Users\USER\IdeaProjects\task6x\src\main\java\App.java
C:\Users\USER\IdeaProjects\task6x\src\main\java\CreateFileJSON.java
C:\Users\USER\IdeaProjects\task6x\src\main\java\CreateFileXML.java
C:\Users\USER\IdeaProjects\task6x\src\main\java\Test2.java
